/* XPM */
static char * file_selector_dots_xpm[] = {
"16 16 2 1",
" 	c None",
".	c #000000",
"                ",
" ..             ",
" ..  ...........",
"                ",
"                ",
" ..             ",
" ..  ...........",
"                ",
"                ",
"                ",
" ...............",
"                ",
"                ",
"                ",
" ...............",
"                "};
