/* XPM */
static char * file_selector_details_xpm[] = {
"16 16 4 1",
" 	c None",
".	c #000000",
"+	c #999999",
"@	c #FFFFFF",
"                ",
" .............. ",
" .+++.++++.+++. ",
" .+++.++++.+++. ",
" .............. ",
" .@@@.@@@@.@@@. ",
" .@@@.@@@@.@@@. ",
" .............. ",
" .@@@.@@@@.@@@. ",
" .@@@.@@@@.@@@. ",
" .............. ",
" .@@@.@@@@.@@@. ",
" .@@@.@@@@.@@@. ",
" .............. ",
"                ",
"                "};
